<?xml version="1.0" encoding="iso-8859-1"?>
<!-- Generator: Adobe Illustrator 19.0.0, SVG Export Plug-In . SVG Version: 6.00 Build 0)  -->
<svg version="1.1" id="Capa_1" xmlns="http://www.w3.org/2000/svg" xmlns:xlink="http://www.w3.org/1999/xlink" x="0px" y="0px"
	 viewBox="0 0 511.999 511.999" style="enable-background:new 0 0 511.999 511.999;" xml:space="preserve">
<g>
	<g>
		<path d="M504.499,149.099h-42.198V73.767c0-22.405-18.228-40.634-40.634-40.634h-42.201V7.5c0-4.143-3.358-7.5-7.5-7.5H140.032
			c-4.142,0-7.5,3.357-7.5,7.5v25.633h-42.2c-22.406,0-40.634,18.229-40.634,40.634v75.332H7.5c-4.142,0-7.5,3.357-7.5,7.5V256
			c0,4.143,3.358,7.5,7.5,7.5h42.199L49.7,429.947c0,13.271,10.796,24.066,24.066,24.066h9.067v33.921
			c0,13.27,10.796,24.065,24.066,24.065h66.27c13.27,0,24.066-10.796,24.066-24.065v-33.921h117.534v33.921
			c0,13.27,10.796,24.065,24.066,24.065h66.266c13.27,0,24.066-10.796,24.066-24.065v-33.921h9.067
			c13.27,0,24.066-10.796,24.066-24.066V297.426c0-0.004,0.001-0.008,0.001-0.012c0-0.004-0.001-0.008-0.001-0.012V263.5h42.199
			c4.142,0,7.5-3.357,7.5-7.5v-99.401C511.999,152.456,508.641,149.099,504.499,149.099z M49.699,248.5h-34.7v-84.401h34.7V248.5z
			 M329.767,15h34.698v18.133h-34.698V15z M197.232,15h117.535v18.133H197.232V15z M147.532,15h34.7v18.133h-34.7V15z M173.168,497
			h-0.785v-9.066c0-4.143-3.358-7.5-7.5-7.5c-4.142,0-7.5,3.357-7.5,7.5V497h-34.702v-9.07c0-4.143-3.358-7.5-7.5-7.5
			c-4.142,0-7.5,3.357-7.5,7.5V497h-0.783c-4.999,0-9.066-4.066-9.066-9.065v-33.921h34.701v9.071c0,4.143,3.358,7.5,7.5,7.5
			c4.142,0,7.5-3.357,7.5-7.5v-9.071h34.7v33.921h0.001C182.234,492.934,178.167,497,173.168,497z M405.1,497h-0.785v-9.066
			c0-4.143-3.358-7.5-7.5-7.5c-4.142,0-7.5,3.357-7.5,7.5V497h-34.699v-9.066c0-4.143-3.358-7.5-7.5-7.5c-4.142,0-7.5,3.357-7.5,7.5
			V497h-0.783c-4.999,0-9.066-4.066-9.066-9.065v-33.921h34.701v9.071c0,4.143,3.358,7.5,7.5,7.5c4.142,0,7.5-3.357,7.5-7.5v-9.071
			h34.697v33.921h0.001C414.166,492.934,410.099,497,405.1,497z M447.3,429.948c-0.001,4.998-4.068,9.066-9.067,9.066H73.766
			c-4.999,0-9.066-4.067-9.066-9.066v-25.635h382.6V429.948z M64.699,389.312v-84.398h113.644l14.368,14.369
			c1.407,1.407,3.315,2.197,5.304,2.197h115.968c1.989,0,3.897-0.79,5.303-2.197l14.369-14.369h113.644v84.398H64.699z
			 M447.301,156.573c0,0.008-0.001,0.016-0.001,0.025s0.001,0.016,0.001,0.025v99.358c0,0.006-0.001,0.012-0.001,0.019
			c0,0.007,0.001,0.013,0.001,0.019v9.048H158.985c-4.142,0-7.5,3.357-7.5,7.5s3.358,7.5,7.5,7.5H447.3v9.847H330.549
			c-1.989,0-3.897,0.79-5.303,2.197l-14.369,14.369H201.122l-14.368-14.369c-1.407-1.407-3.314-2.197-5.304-2.197H64.699v-9.847
			h64.317c4.142,0,7.5-3.357,7.5-7.5s-3.358-7.5-7.5-7.5H64.699v-9.063c0-0.002,0-0.003,0-0.004c0-0.001,0-0.003,0-0.005v-99.384
			c0-0.004,0.001-0.008,0.001-0.013c0-0.004-0.001-0.008-0.001-0.013v-42.188h382.602V156.573z M197.235,99.398V72.983h117.531
			v26.415H197.235z M447.301,99.399H329.766V65.483c0-4.143-3.358-7.5-7.5-7.5H189.735c-4.142,0-7.5,3.357-7.5,7.5v33.915H64.698
			V73.766c0-14.134,11.5-25.633,25.634-25.633h331.335c14.134,0,25.634,11.499,25.634,25.634V99.399z M496.999,248.5H462.3v-84.401
			h34.699V248.5z"/>
	</g>
</g>
<g>
	<g>
		<path d="M156.598,323.046H90.332c-4.142,0-7.5,3.357-7.5,7.5v33.133c0,4.143,3.358,7.5,7.5,7.5h66.267c4.142,0,7.5-3.357,7.5-7.5
			v-33.133C164.098,326.403,160.74,323.046,156.598,323.046z M149.099,356.179h-0.001H97.832v-18.133h51.267V356.179z"/>
	</g>
</g>
<g>
	<g>
		<path d="M421.666,323.046h-66.267c-4.142,0-7.5,3.357-7.5,7.5v33.133c0,4.143,3.358,7.5,7.5,7.5h66.267c4.142,0,7.5-3.357,7.5-7.5
			v-33.133C429.166,326.403,425.808,323.046,421.666,323.046z M414.166,356.179h-51.267v-18.133h51.267V356.179z"/>
	</g>
</g>
<g>
	<g>
		<path d="M256,339.613c-4.142,0-7.5,3.357-7.5,7.5v16.568c0,4.143,3.358,7.5,7.5,7.5c4.142,0,7.5-3.357,7.5-7.5v-16.568
			C263.5,342.971,260.143,339.613,256,339.613z"/>
	</g>
</g>
<g>
	<g>
		<path d="M280.851,339.613c-4.142,0-7.5,3.357-7.5,7.5v16.568c0,4.143,3.358,7.5,7.5,7.5c4.142,0,7.5-3.357,7.5-7.5v-16.568
			C288.351,342.971,284.993,339.613,280.851,339.613z"/>
	</g>
</g>
<g>
	<g>
		<path d="M305.702,339.613c-4.142,0-7.5,3.357-7.5,7.5v16.568c0,4.143,3.358,7.5,7.5,7.5c4.142,0,7.5-3.357,7.5-7.5v-16.568
			C313.202,342.971,309.844,339.613,305.702,339.613z"/>
	</g>
</g>
<g>
	<g>
		<path d="M231.15,339.613c-4.142,0-7.5,3.357-7.5,7.5v16.568c0,4.143,3.358,7.5,7.5,7.5c4.142,0,7.5-3.357,7.5-7.5v-16.568
			C238.65,342.971,235.292,339.613,231.15,339.613z"/>
	</g>
</g>
<g>
	<g>
		<path d="M206.299,339.613c-4.142,0-7.5,3.357-7.5,7.5v16.568c0,4.143,3.358,7.5,7.5,7.5c4.142,0,7.5-3.357,7.5-7.5v-16.568
			C213.799,342.971,210.441,339.613,206.299,339.613z"/>
	</g>
</g>
<g>
	<g>
		<path d="M140.033,66.266H106.9c-4.142,0-7.5,3.357-7.5,7.5s3.358,7.5,7.5,7.5h33.133c4.142,0,7.5-3.357,7.5-7.5
			S144.175,66.266,140.033,66.266z"/>
	</g>
</g>
<g>
	<g>
		<path d="M405.101,66.266h-33.132c-4.142,0-7.5,3.357-7.5,7.5s3.358,7.5,7.5,7.5h33.132c4.142,0,7.5-3.357,7.5-7.5
			S409.243,66.266,405.101,66.266z"/>
	</g>
</g>
<g>
</g>
<g>
</g>
<g>
</g>
<g>
</g>
<g>
</g>
<g>
</g>
<g>
</g>
<g>
</g>
<g>
</g>
<g>
</g>
<g>
</g>
<g>
</g>
<g>
</g>
<g>
</g>
<g>
</g>
</svg>
